{
    "openapi": "3.0.0",
    "info": {
        "version": "1.0.0",
        "title": "apple cat car",
        "description": "User API description"
    },
    "tags": [{
        "name": "Users",
        "description": "API for in the system"
    }],
    "consumes": [
        "application/json"
    ],
    "produces": [
        "application/json"
    ],
    "paths": {
        "/users": {
            "get": {
                "tags": [
                    "Users"
                ],
                "responses": {
                    "200": {
                        "description": "OK",
                        "examples": {
                            "name": {
                                "type": "string"
                            },
                            "phone": {
                                "type": "string"
                            }
                        }
                    }
                }
            },
            "post": {
                "tags": [
                    "Users"
                ],
                "summary": "Create a new User",
                "requestBody": {
                    "description": "User Object",
                    "required": true,
                    "content": {
                        "application/json": {
                            "schema": {
                                "$ref": "#/definitions/User"
                            }
                        }
                    }
                },
                "produces": [
                    "application/json"
                ],
                "responses": {
                    "200": {
                        "description": "OK",
                        "schema": {
                            "$ref": "#/definitions/User"
                        }
                    },
                    "400": {
                        "description": "Failed. Bad post data."
                    }
                }
            }
        }
    },
    "definitions": {
        "User": {
            "type": "object",
            "properties": {
                "name": {
                    "type": "string"
                },
                "phone": {
                    "type": "string"
                }
            }
        }
    }
}